hw2/hw2_1/dump.vcd
$date
	Sun Feb 14 23:06:27 2016
$end
$version
	ModelSim Version 5.8b
$end
$timescale
	1ns
$end
$scope module shifter_hier_bench $end
$var reg 16 ! In [15:0] $end
$var reg 4 " Cnt [3:0] $end
$var reg 2 # Op [1:0] $end
$var wire 1 $ Out [15] $end
$var wire 1 % Out [14] $end
$var wire 1 & Out [13] $end
$var wire 1 ' Out [12] $end
$var wire 1 ( Out [11] $end
$var wire 1 ) Out [10] $end
$var wire 1 * Out [9] $end
$var wire 1 + Out [8] $end
$var wire 1 , Out [7] $end
$var wire 1 - Out [6] $end
$var wire 1 . Out [5] $end
$var wire 1 / Out [4] $end
$var wire 1 0 Out [3] $end
$var wire 1 1 Out [2] $end
$var wire 1 2 Out [1] $end
$var wire 1 3 Out [0] $end
$var reg 1 4 fail $end
$var reg 32 5 Expected [31:0] $end
$var integer 32 6 idx $end
$scope module DUT $end
$var wire 1 7 In [15] $end
$var wire 1 8 In [14] $end
$var wire 1 9 In [13] $end
$var wire 1 : In [12] $end
$var wire 1 ; In [11] $end
$var wire 1 < In [10] $end
$var wire 1 = In [9] $end
$var wire 1 > In [8] $end
$var wire 1 ? In [7] $end
$var wire 1 @ In [6] $end
$var wire 1 A In [5] $end
$var wire 1 B In [4] $end
$var wire 1 C In [3] $end
$var wire 1 D In [2] $end
$var wire 1 E In [1] $end
$var wire 1 F In [0] $end
$var wire 1 G Cnt [3] $end
$var wire 1 H Cnt [2] $end
$var wire 1 I Cnt [1] $end
$var wire 1 J Cnt [0] $end
$var wire 1 K Op [1] $end
$var wire 1 L Op [0] $end
$var wire 1 $ Out [15] $end
$var wire 1 % Out [14] $end
$var wire 1 & Out [13] $end
$var wire 1 ' Out [12] $end
$var wire 1 ( Out [11] $end
$var wire 1 ) Out [10] $end
$var wire 1 * Out [9] $end
$var wire 1 + Out [8] $end
$var wire 1 , Out [7] $end
$var wire 1 - Out [6] $end
$var wire 1 . Out [5] $end
$var wire 1 / Out [4] $end
$var wire 1 0 Out [3] $end
$var wire 1 1 Out [2] $end
$var wire 1 2 Out [1] $end
$var wire 1 3 Out [0] $end
$var wire 1 M clk $end
$var wire 1 N rst $end
$var wire 1 O err $end
$scope module c0 $end
$var reg 1 P clk $end
$var reg 1 Q rst $end
$var wire 1 O err $end
$var integer 32 R cycle_count $end
$upscope $end
$scope module s0 $end
$var wire 1 7 In [15] $end
$var wire 1 8 In [14] $end
$var wire 1 9 In [13] $end
$var wire 1 : In [12] $end
$var wire 1 ; In [11] $end
$var wire 1 < In [10] $end
$var wire 1 = In [9] $end
$var wire 1 > In [8] $end
$var wire 1 ? In [7] $end
$var wire 1 @ In [6] $end
$var wire 1 A In [5] $end
$var wire 1 B In [4] $end
$var wire 1 C In [3] $end
$var wire 1 D In [2] $end
$var wire 1 E In [1] $end
$var wire 1 F In [0] $end
$var wire 1 G Cnt [3] $end
$var wire 1 H Cnt [2] $end
$var wire 1 I Cnt [1] $end
$var wire 1 J Cnt [0] $end
$var wire 1 K Op [1] $end
$var wire 1 L Op [0] $end
$var wire 1 $ Out [15] $end
$var wire 1 % Out [14] $end
$var wire 1 & Out [13] $end
$var wire 1 ' Out [12] $end
$var wire 1 ( Out [11] $end
$var wire 1 ) Out [10] $end
$var wire 1 * Out [9] $end
$var wire 1 + Out [8] $end
$var wire 1 , Out [7] $end
$var wire 1 - Out [6] $end
$var wire 1 . Out [5] $end
$var wire 1 / Out [4] $end
$var wire 1 0 Out [3] $end
$var wire 1 1 Out [2] $end
$var wire 1 2 Out [1] $end
$var wire 1 3 Out [0] $end
$var reg 16 S c [15:0] $end
$var reg 16 T d [15:0] $end
$var reg 16 U e [15:0] $end
$var reg 16 V inreg [15:0] $end
$var reg 16 W outreg [15:0] $end
$var reg 2 X opreg [1:0] $end
$var reg 4 Y cntreg [3:0] $end
$upscope $end
$upscope $end
$upscope $end
$enddefinitions $end
#0
$dumpvars
b11010100100100 !
b1 "
b1 #
04
bx 5
bx 6
b110101001001000 S
b110101001001000 T
b110101001001000 U
b11010100100100 V
b110101001001000 W
b1 X
b1 Y
1P
1Q
b1 R
03
02
01
10
0/
0.
1-
0,
0+
1*
0)
1(
0'
1&
1%
0$
1M
1N
0O
1L
0K
1J
0I
0H
0G
0F
0E
1D
0C
0B
1A
0@
0?
1>
0=
1<
0;
1:
19
08
07
$end
#50
0P
0M
b110101001001000 5
#100
1P
b10 R
1M
b101011001100011 !
b1101 "
1F
1E
0D
1@
0>
1=
09
18
1H
1G
b101011001100011 V
b1101 Y
b1010110011000110 U
b1010110011000110 T
b1100110001100000 S
b110000000000000 W
00
0-
0*
0(
#150
0P
0M
b1010110011000110000000000000 5
#200
1P
b11 R
1M
b1000010001100101 !
b10 "
0E
1D
0=
0:
08
17
0J
1I
0H
0G
b1000010001100101 V
b10 Y
b1000010001100101 U
b1000110010100 T
b1000110010100 S
b1000110010100 W
11
1/
1,
1+
1'
0&
0%
#201
0Q
0N
#250
0P
0M
b100001000110010100 5
#300
1P
b100 R
1M
b1100110100001101 !
b110 "
1C
0A
0@
1>
1;
18
1H
b1100110100001101 V
b110 Y
b1100110100001101 U
b11010000110100 T
b100001101000000 S
b100001101000000 W
01
0/
1-
0,
1*
0'
1%
#350
0P
0M
b1100110100001101000000 5
#400
1P
b101 R
1M
b101011111101101 !
b1100 "
1A
1@
1?
1=
0;
1:
07
0I
1G
b101011111101101 V
b1100 Y
b101011111101101 U
b101011111101101 T
b111111011010000 S
b1101000000000000 W
0-
0+
0*
1'
1$
#450
0P
0M
b101011111101101000000000000 5
#500
1P
b110 R
1M
b10010011000110 !
b101 "
b10 #
0F
1E
0C
0A
0>
0=
0:
19
08
1J
0G
0L
1K
b10010011000110 V
b10 X
b101 Y
b1001001100011 U
b1001001100011 T
b100100110 S
b100100110 W
12
11
1.
1+
0'
0%
0$
#550
0P
0M
b11111 6
b11110 6
b11101 6
b11100 6
b11011 6
b11010 6
b1011111101101000000000000 5
b11001 6
b11000 6
b11111101101000000000000 5
b10111 6
b10110 6
b1111101101000000000000 5
b10101 6
b111101101000000000000 5
b10100 6
b11101101000000000000 5
b10011 6
b1101101000000000000 5
b10010 6
b101101000000000000 5
b10001 6
b1101000000000000 5
b10000 6
b1111 6
b10010011000110 5
b100100110 5
#600
1P
b111 R
1M
b1111011111100101 !
b111 "
1F
0E
1A
1>
1=
1:
18
17
1I
b1111011111100101 V
b111 Y
b1111101111110010 U
b1111111011111100 T
b1111111111101111 S
b1111111111101111 W
13
10
1-
1,
1*
1)
1(
1'
1&
1%
1$
#650
0P
0M
b11111 6
b10000000000000000000000100100110 5
b11110 6
b11000000000000000000000100100110 5
b11101 6
b11100000000000000000000100100110 5
b11100 6
b11110000000000000000000100100110 5
b11011 6
b11111000000000000000000100100110 5
b11010 6
b11111100000000000000000100100110 5
b11001 6
b11111110000000000000000100100110 5
b11000 6
b11111111000000000000000100100110 5
b10111 6
b11111111100000000000000100100110 5
b10110 6
b11111111110000000000000100100110 5
b10101 6
b11111111111000000000000100100110 5
b10100 6
b11111111111100000000000100100110 5
b10011 6
b11111111111110000000000100100110 5
b10010 6
b11111111111111000000000100100110 5
b10001 6
b11111111111111100000000100100110 5
b10000 6
b11111111111111110000000100100110 5
b1111 6
b11111111111111111111011111100101 5
b11111111111111111111111111101111 5
#700
1P
b1000 R
1M
b1101101110001111 !
b10 "
1E
1C
0A
0@
0<
1;
09
0J
0H
b1101101110001111 V
b10 Y
b1101101110001111 U
b1111011011100011 T
b1111011011100011 S
b1111011011100011 W
01
00
0+
0(
#750
0P
0M
b11111 6
b11110 6
b11101 6
b11100 6
b11011 6
b11010 6
b11001 6
b11000 6
b10111 6
b10110 6
b10101 6
b10100 6
b10011 6
b10010 6
b10001 6
b10000 6
b1111 6
b11111111111111111101101110001111 5
b11111111111111111111011011100011 5
#800
1P
b1001 R
1M
b111101011101000 !
b101 "
b0 #
0F
0E
0D
1A
1@
0>
19
07
1J
0I
1H
0K
b111101011101000 V
b0 X
b101 Y
b1111010111010000 U
b1111010111010000 T
b101110100001111 S
b101110100001111 W
11
10
0.
0-
0,
1+
0*
1(
0&
0$
#850
0P
0M
b11110101110100001111 5
#900
1P
b1010 R
1M
b10100010111101 !
b1101 "
b1 #
1F
1D
1B
0@
0=
0:
08
1G
1L
b10100010111101 V
b1 X
b1101 Y
b101000101111010 U
b101000101111010 T
b1011110100000 S
b1010000000000000 W
03
02
01
00
0+
0)
0(
0'
1&
0%
1$
#950
0P
0M
b101000101111010000000000000 5
#1000
1P
b1011 R
1M
b110001001100011 !
b1010 "
b0 #
1E
0D
0C
0B
1@
0?
1=
0;
18
0J
1I
0H
0L
b110001001100011 V
b0 X
b1010 Y
b110001001100011 U
b1000100110001101 T
b1000100110001101 S
b1000110110001001 W
13
10
1,
1+
1)
1(
0&
#1050
0P
0M
b1100010011000110110001001 5
#1100
1P
b1100 R
1M
b10000100100000 !
b1 #
0F
0E
0@
1>
0=
08
1L
b10000100100000 V
b1 X
b10000100100000 U
b1000010010000000 T
b1000010010000000 S
b1000000000000000 W
03
00
0,
0+
0)
0(
#1150
0P
0M
b100001001000000000000000 5
#1200
1P
b1101 R
1M
b11111010010110 !
b11 "
1E
1D
1B
0A
1?
0>
1=
1<
1;
1:
1J
0G
b11111010010110 V
b11 Y
b111110100101100 U
b1111010010110000 T
b1111010010110000 S
b1111010010110000 W
1/
1.
1,
1)
1'
1&
1%
#1250
0P
0M
b11111010010110000 5
#1300
1P
b1110 R
1M
b1101011001010011 !
b1011 "
1F
0D
1@
0?
0;
09
18
17
1G
b1101011001010011 V
b1011 Y
b1010110010100110 U
b1011001010011000 T
b1011001010011000 S
b1001100000000000 W
0/
0.
0,
0)
1(
0&
0%
#1350
0P
0M
b110101100101001100000000000 5
#1400
1P
b1111 R
1M
b100101000000010 !
b1110 "
0F
0B
0@
0<
1;
0:
07
0J
1H
b100101000000010 V
b1110 Y
b100101000000010 U
b10100000001000 T
b1000000010000000 S
b1000000000000000 W
0(
0'
#1450
0P
0M
b10010100000001000000000000000 5
#1500
1P
b10000 R
1M
b111001011001111 !
b11 "
b10 #
1F
1D
1C
1@
1?
0;
1:
19
1J
0H
0G
0L
1K
b111001011001111 V
b10 X
b11 Y
b11100101100111 U
b111001011001 T
b111001011001 S
b111001011001 W
13
10
1/
1-
1*
1)
1(
0$
#1550
0P
0M
b11111 6
b11110 6
b11101 6
b11100 6
b10100000001000000000000000 5
b11011 6
b11010 6
b11001 6
b100000001000000000000000 5
b11000 6
b10111 6
b1000000000000000 5
b10110 6
b10101 6
b10100 6
b10011 6
b10010 6
b10001 6
b10000 6
b1111 6
b111001011001111 5
b111001011001 5
#1600
1P
b10001 R
1M
b101011001010 !
b1100 "
0F
0D
1;
0:
09
08
0J
0I
1H
1G
b101011001010 V
b1100 Y
b101011001010 U
b101011001010 T
b10101100 S
b0 W
03
00
0/
0-
0*
0)
0(
#1650
0P
0M
b11111 6
b11110 6
b11101 6
b11100 6
b11011 6
b11010 6
b11001 6
b11000 6
b10111 6
b10110 6
b10101 6
b10100 6
b10011 6
b10010 6
b10001 6
b10000 6
b1111 6
b101011001010 5
b0 5
#1700
1P
b10010 R
1M
b110000110001010 !
b1 "
b0 #
0@
1>
0=
0;
19
18
1J
0H
0G
0K
b110000110001010 V
b0 X
b1 Y
b1100001100010100 U
b1100001100010100 T
b1100001100010100 S
b1100001100010100 W
11
1/
1+
1*
1%
1$
#1750
0P
0M
b1100001100010100 5
#1800
1P
b10011 R
1M
b1111001101111000 !
b1001 "
b11 #
0E
1B
1A
1@
0?
1=
1:
17
1G
1L
1K
b1111001101111000 V
b11 X
b1001 Y
b111100110111100 U
b111100110111100 T
b111100110111100 S
b1111001 W
13
01
10
1.
1-
0+
0*
0%
0$
#1850
0P
0M
b1111001 5
#1900
1P
b10100 R
1M
b110010110110110 !
b110 "
b10 #
1E
1D
0C
0@
1?
0=
1<
0:
07
0J
1I
1H
0G
0L
b110010110110110 V
b10 X
b110 Y
b110010110110110 U
b1100101101101 T
b110010110 S
b110010110 W
03
12
11
00
0.
0-
1,
1+
#1950
0P
0M
b11111 6
b11110 6
b11101 6
b11100 6
b11011 6
b11010 6
b11001 6
b11000 6
b10111 6
b10110 6
b10101 6
b10100 6
b10011 6
b10010 6
b10001 6
b10000 6
b1111 6
b110010110110110 5
b110010110 5
#2000
1P
b10101 R
1M
b1010111100 !
b1010 "
b11 #
0E
1C
0>
1=
0<
09
08
0H
1G
1L
b1010111100 V
b11 X
b1010 Y
b1010111100 U
b10101111 T
b10101111 S
b0 W
02
01
0/
0,
0+
#2050
0P
0M
b0 5
#2100
1P
b10110 R
1M
b1011111001110001 !
b101 "
1F
0D
0C
1@
0?
1<
1;
1:
19
17
1J
0I
1H
0G
b1011111001110001 V
b101 Y
b101111100111000 U
b101111100111000 T
b10111110011 S
b10111110011 W
13
12
1/
1.
1-
1,
1+
1)
#2150
0P
0M
b10111110011 5
#2200
1P
b10111 R
1M
b110000000111011 !
b1010 "
b10 #
1E
1C
0@
0=
0<
0;
0:
18
07
0J
1I
0H
1G
0L
b110000000111011 V
b10 X
b1010 Y
b110000000111011 U
b1100000001110 T
b1100000001110 S
b11000 W
03
02
10
0.
0-
0,
0+
0)
#2250
0P
0M
b11111 6
b11110 6
b11101 6
b11100 6
b11011 6
b11010 6
b11001 6
b11000 6
b10111 6
b10110 6
b10101 6
b10100 6
b10011 6
b10010 6
b10001 6
b10000 6
b1111 6
b110000000111011 5
b11000 5
#2300
1P
b11000 R
1M
b100101100010101 !
b1 "
b1 #
0E
1D
0C
0A
1>
1=
1;
09
1J
0I
0G
1L
0K
b100101100010101 V
b1 X
b1 Y
b1001011000101010 U
b1001011000101010 T
b1001011000101010 S
b1001011000101010 W
12
0/
1.
1*
1)
1'
1$
#2350
0P
0M
b1001011000101010 5
#2400
1P
b11001 R
1M
b11101100010 !
b1100 "
b11 #
0F
1E
0D
0B
1A
1@
1<
0;
08
0J
1H
1G
1K
b11101100010 V
b11 X
b1100 Y
b11101100010 U
b11101100010 T
b1110110 S
b0 W
02
00
0.
0*
0)
0'
0$
#2450
0P
0M
b0 5
#2500
1P
b11010 R
1M
b1010000110001111 !
b1000 "
1F
1D
1C
0A
0@
1?
0=
0<
19
17
0H
b1010000110001111 V
b1000 Y
b1010000110001111 U
b1010000110001111 T
b1010000110001111 S
b10100001 W
13
1.
1,
#2550
0P
0M
b10100001 5
#2600
1P
b11011 R
1M
b101011010011111 !
b1100 "
1B
0>
1=
1<
1:
09
18
07
1H
b101011010011111 V
b1100 Y
b101011010011111 U
b101011010011111 T
b10101101001 S
b101 W
11
0.
0,
#2650
0P
0M
b101 5
#2700
1P
b11100 R
1M
b11011110001001 !
b1001 "
b0 #
0E
0D
0B
1>
19
08
1J
0H
0L
0K
b11011110001001 V
b0 X
b1001 Y
b110111100010010 U
b110111100010010 T
b110111100010010 S
b1001001101111 W
12
10
1.
1-
1*
1'
#2750
0P
0M
b11011110001001001101111 5
#2800
1P
b11101 R
1M
b1100000011010111 !
b1 "
b10 #
1E
1D
0C
1B
1@
0>
0=
0<
0:
09
18
17
0G
1K
b1100000011010111 V
b10 X
b1 Y
b1110000001101011 U
b1110000001101011 T
b1110000001101011 S
b1110000001101011 W
01
0*
0'
1&
1%
1$
#2850
0P
0M
b11111 6
b10000000011011110001001001101111 5
b11110 6
b11000000011011110001001001101111 5
b11101 6
b11100000011011110001001001101111 5
b11100 6
b11110000011011110001001001101111 5
b11011 6
b11111000011011110001001001101111 5
b11010 6
b11111100011011110001001001101111 5
b11001 6
b11111110011011110001001001101111 5
b11000 6
b11111111011011110001001001101111 5
b10111 6
b11111111111011110001001001101111 5
b10110 6
b10101 6
b10100 6
b11111111111111110001001001101111 5
b10011 6
b10010 6
b10001 6
b10000 6
b1111 6
b11111111111111111100000011010111 5
b11111111111111111110000001101011 5
#2900
1P
b11110 R
1M
b111111100001100 !
b10 "
b0 #
0F
0E
1C
0B
0@
0?
1>
1=
1<
1;
1:
19
07
0J
1I
0K
b111111100001100 V
b0 X
b10 Y
b111111100001100 U
b1111110000110001 T
b1111110000110001 S
b1111110000110001 W
02
00
1/
0-
1)
1(
1'
#2950
0P
0M
b11111110000110001 5
#3000
1P
b11111 R
1M
b101101001110111 !
b1101 "
b10 #
1F
1E
0C
1B
1A
1@
0>
0<
09
1J
0I
1H
1G
1K
b101101001110111 V
b10 X
b1101 Y
b10110100111011 U
b10110100111011 T
b1011010011 S
b10 W
03
12
0/
0.
0)
0(
0'
0&
0%
0$
#3050
0P
0M
b11111 6
b11110 6
b11101 6
b11100 6
b11011 6
b11010 6
b11001 6
b11000 6
b10111 6
b10110 6
b10101 6
b10100 6
b10011 6
b10010 6
b10001 6
b10000 6
b1111110000110001 5
b1111 6
b101101001110111 5
b10 5
#3100
1P
b100000 R
1M
b1111110 !
b1 #
0F
1C
0=
0;
0:
08
1L
0K
b1111110 V
b1 X
b11111100 U
b11111100 T
b111111000000 S
b1100000000000000 W
02
1%
1$
#3150
0P
0M
b11111100000000000000 5
#3200
1P
b100001 R
1M
b1000111100011111 !
b11 "
1F
0A
0@
1>
1=
1<
1;
17
1I
0H
0G
b1000111100011111 V
b11 Y
b1111000111110 U
b111100011111000 T
b111100011111000 S
b111100011111000 W
10
1/
1.
1-
1,
1(
1'
1&
0$
#3250
0P
0M
b1000111100011111000 5
#3300
1P
b100010 R
1M
b1000100001111000 !
b1011 "
0F
0E
0D
1A
1@
0>
0=
0<
1G
b1000100001111000 V
b1011 Y
b1000011110000 U
b100001111000000 T
b100001111000000 S
b1100000000000000 W
00
0/
0.
0-
0,
0(
0'
0&
1$
#3350
0P
0M
b100010000111100000000000000 5
#3400
1P
b100011 R
1M
b1010111000111111 !
b1010 "
b0 #
1F
1E
1D
0@
1=
1<
19
0J
0L
b1010111000111111 V
b0 X
b1010 Y
b1010111000111111 U
b1011100011111110 T
b1011100011111110 S
b1111111010111000 W
10
1/
1.
1,
1*
1)
1(
1'
1&
#3450
0P
0M
b10101110001111111010111000 5
#3500
1P
b100100 R
1M
b11100010000110 !
b1110 "
0F
0C
0B
0A
1?
0=
0<
1:
07
1H
b11100010000110 V
b1110 Y
b11100010000110 U
b1110001000011000 T
b10000110001110 S
b1000111000100001 W
13
00
0/
0,
0'
0&
0%
#3550
0P
0M
b1110001000011000111000100001 5
#3600
1P
b100101 R
1M
b1001100111111010 !
b110 "
b11 #
0D
1C
1B
1A
1@
1>
09
17
0G
1L
1K
b1001100111111010 V
b11 X
b110 Y
b1001100111111010 U
b10011001111110 T
b1001100111 S
b1001100111 W
12
11
1-
0)
0(
0$
#3650
0P
0M
b1001100111 5
#3700
1P
b100110 R
1M
b1011010010100011 !
b1111 "
1F
0C
0B
0@
0>
1<
0;
19
1J
1G
b1011010010100011 V
b1111 Y
b101101001010001 U
b1011010010100 T
b101101001 S
b1 W
02
01
0.
0-
0*
#3750
0P
0M
b1 5
#3800
1P
b100111 R
1M
b101011001011111 !
b100 "
1D
1C
1B
0A
1@
0?
1=
09
18
07
0J
0I
0G
b101011001011111 V
b100 Y
b101011001011111 U
b101011001011111 T
b10101100101 S
b10101100101 W
11
1.
1-
1+
1)
#3850
0P
0M
b10101100101 5
#3900
1P
b101000 R
1M
b11011011001011 !
b110 "
b10 #
0D
0B
1?
19
08
1I
0L
b11011011001011 V
b10 X
b110 Y
b11011011001011 U
b110110110010 T
b11011011 S
b11011011 W
12
01
10
1/
0.
1,
0+
0)
#3950
0P
0M
b11111 6
b11110 6
b11101 6
b11100 6
b11011 6
b11010 6
b11001 6
b11000 6
b10111 6
b10110 6
b10101 6
b10100 6
b10011 6
b10010 6
b10001 6
b10000 6
b1111 6
b11011011001011 5
b11011011 5
#4000
1P
b101001 R
1M
b1100000100101001 !
b1101 "
0E
1A
0@
0?
1>
0=
0<
0:
09
18
17
1J
0I
1G
b1100000100101001 V
b1101 Y
b1110000010010100 U
b1110000010010100 T
b1111111000001001 S
b1111111111111110 W
03
11
1.
1+
1*
1)
1(
1'
1&
1%
1$
#4050
0P
0M
b11111 6
b10000000000000000000000011011011 5
b11110 6
b11000000000000000000000011011011 5
b11101 6
b11100000000000000000000011011011 5
b11100 6
b11110000000000000000000011011011 5
b11011 6
b11111000000000000000000011011011 5
b11010 6
b11111100000000000000000011011011 5
b11001 6
b11111110000000000000000011011011 5
b11000 6
b11111111000000000000000011011011 5
b10111 6
b11111111100000000000000011011011 5
b10110 6
b11111111110000000000000011011011 5
b10101 6
b11111111111000000000000011011011 5
b10100 6
b11111111111100000000000011011011 5
b10011 6
b11111111111110000000000011011011 5
b10010 6
b11111111111111000000000011011011 5
b10001 6
b11111111111111100000000011011011 5
b10000 6
b11111111111111110000000011011011 5
b1111 6
b11111111111111111100000100101001 5
b11111111111111111111111111111110 5
#4100
1P
b101010 R
1M
b1011011001100101 !
b101 "
b11 #
1D
0C
1@
0>
1=
1<
1:
19
08
0G
1L
b1011011001100101 V
b11 X
b101 Y
b101101100110010 U
b101101100110010 T
b10110110011 S
b10110110011 W
13
01
00
0-
0*
0(
0'
0&
0%
0$
#4150
0P
0M
b10110110011 5
#4200
1P
b101011 R
1M
b1100101111001 !
b100 "
b0 #
0D
1C
1B
1>
0=
0<
1;
09
07
0J
0L
0K
b1100101111001 V
b0 X
b100 Y
b1100101111001 U
b1100101111001 T
b1001011110010001 S
b1001011110010001 W
02
0.
1*
1'
1$
#4250
0P
0M
b11001011110010001 5
#4300
1P
b101100 R
1M
b101100101010 !
b1011 "
b10 #
0F
1E
0B
0@
1=
0:
1J
1I
0H
1G
1K
b101100101010 V
b10 X
b1011 Y
b10110010101 U
b101100101 T
b101100101 S
b1 W
0/
0,
0+
0*
0)
0'
0$
#4350
0P
0M
b11111 6
b11110 6
b11101 6
b11100 6
b11011 6
b11010 6
b11001 6
b11000 6
b10111 6
b10110 6
b10101 6
b10100 6
b10011 6
b10010 6
b10001 6
b10000 6
b1001011110010001 5
b1111 6
b101100101010 5
b1 5
#4400
1P
b101101 R
1M
b1010110111011100 !
b1010 "
b1 #
0E
1D
1B
0A
1@
1?
0=
1<
19
17
0J
1L
0K
b1010110111011100 V
b1 X
b1010 Y
b1010110111011100 U
b1011011101110000 T
b1011011101110000 S
b111000000000000 W
03
1'
1&
1%
#4450
0P
0M
b10101101110111000000000000 5
#4500
1P
b101110 R
1M
b1011000011 !
b110 "
b10 #
1F
1E
0D
0C
0B
0>
1=
0<
0;
09
07
1H
0G
0L
1K
b1011000011 V
b10 X
b110 Y
b1011000011 U
b10110000 T
b1011 S
b1011 W
13
12
10
0'
0&
0%
#4550
0P
0M
b11111 6
b11110 6
b11101 6
b11100 6
b11011 6
b11010 6
b11001 6
b101101110111000000000000 5
b11000 6
b10111 6
b1101110111000000000000 5
b10110 6
b10101 6
b101110111000000000000 5
b10100 6
b1110111000000000000 5
b10011 6
b10010 6
b110111000000000000 5
b10001 6
b10111000000000000 5
b10000 6
b111000000000000 5
b1111 6
b1011000011 5
b1011 5
#4600
1P
b101111 R
1M
b111011001100111 !
b1010 "
1D
1A
0?
1<
1:
19
18
0H
1G
b111011001100111 V
b1010 Y
b111011001100111 U
b1110110011001 T
b1110110011001 S
b11101 W
02
11
1/
#4650
0P
0M
b11111 6
b11110 6
b11101 6
b11100 6
b11011 6
b11010 6
b11001 6
b11000 6
b10111 6
b10110 6
b10101 6
b10100 6
b10011 6
b10010 6
b10001 6
b10000 6
b1111 6
b111011001100111 5
b11101 5
#4700
1P
b110000 R
1M
b1000101000111000 !
b1001 "
b0 #
0F
0E
0D
1C
1B
0@
0<
1;
0:
09
08
17
1J
0I
0K
b1000101000111000 V
b0 X
b1001 Y
b1010001110001 U
b1010001110001 T
b1010001110001 S
b111000100010100 W
03
00
1+
1'
1&
1%
#4750
0P
0M
b1000101000111000100010100 5
#4800
1P
b110001 R
1M
b1011111110010100 !
b11 "
1D
0C
0A
1?
1>
1<
1:
19
1I
0G
b1011111110010100 V
b11 Y
b111111100101001 U
b1111110010100101 T
b1111110010100101 S
b1111110010100101 W
13
0/
1.
1,
0+
1)
1(
1$
#4850
0P
0M
b1011111110010100101 5
#4900
1P
b110010 R
1M
b1100101001011001 !
b1011 "
b1 #
1F
0D
1C
1@
0?
0>
0<
0:
09
18
1G
1L
b1100101001011001 V
b1 X
b1011 Y
b1001010010110010 U
b101001011001000 T
b101001011001000 S
b1100100000000000 W
03
01
0.
0,
0)
0'
0&
#4950
0P
0M
b110010100101100100000000000 5
