hw2/hw2_2/dump.vcd
$date
	Mon Feb 15 16:17:25 2016
$end
$version
	ModelSim Version 5.8b
$end
$timescale
	1ns
$end
$scope module alu_hier_bench $end
$var reg 16 ! A_pre_inv [15:0] $end
$var reg 16 " B_pre_inv [15:0] $end
$var wire 1 # A [15] $end
$var wire 1 $ A [14] $end
$var wire 1 % A [13] $end
$var wire 1 & A [12] $end
$var wire 1 ' A [11] $end
$var wire 1 ( A [10] $end
$var wire 1 ) A [9] $end
$var wire 1 * A [8] $end
$var wire 1 + A [7] $end
$var wire 1 , A [6] $end
$var wire 1 - A [5] $end
$var wire 1 . A [4] $end
$var wire 1 / A [3] $end
$var wire 1 0 A [2] $end
$var wire 1 1 A [1] $end
$var wire 1 2 A [0] $end
$var wire 1 3 B [15] $end
$var wire 1 4 B [14] $end
$var wire 1 5 B [13] $end
$var wire 1 6 B [12] $end
$var wire 1 7 B [11] $end
$var wire 1 8 B [10] $end
$var wire 1 9 B [9] $end
$var wire 1 : B [8] $end
$var wire 1 ; B [7] $end
$var wire 1 < B [6] $end
$var wire 1 = B [5] $end
$var wire 1 > B [4] $end
$var wire 1 ? B [3] $end
$var wire 1 @ B [2] $end
$var wire 1 A B [1] $end
$var wire 1 B B [0] $end
$var reg 1 C Cin $end
$var reg 3 D Op [2:0] $end
$var reg 1 E invA $end
$var reg 1 F invB $end
$var reg 1 G sign $end
$var wire 1 H Out [15] $end
$var wire 1 I Out [14] $end
$var wire 1 J Out [13] $end
$var wire 1 K Out [12] $end
$var wire 1 L Out [11] $end
$var wire 1 M Out [10] $end
$var wire 1 N Out [9] $end
$var wire 1 O Out [8] $end
$var wire 1 P Out [7] $end
$var wire 1 Q Out [6] $end
$var wire 1 R Out [5] $end
$var wire 1 S Out [4] $end
$var wire 1 T Out [3] $end
$var wire 1 U Out [2] $end
$var wire 1 V Out [1] $end
$var wire 1 W Out [0] $end
$var wire 1 X Ofl $end
$var wire 1 Y Z $end
$var reg 1 Z fail $end
$var reg 1 [ cerror $end
$var reg 32 \ ExOut [31:0] $end
$var reg 1 ] ExOfl $end
$var reg 1 ^ ExZ $end
$var integer 32 _ idx $end
$scope module DUT $end
$var wire 1 ` A [15] $end
$var wire 1 a A [14] $end
$var wire 1 b A [13] $end
$var wire 1 c A [12] $end
$var wire 1 d A [11] $end
$var wire 1 e A [10] $end
$var wire 1 f A [9] $end
$var wire 1 g A [8] $end
$var wire 1 h A [7] $end
$var wire 1 i A [6] $end
$var wire 1 j A [5] $end
$var wire 1 k A [4] $end
$var wire 1 l A [3] $end
$var wire 1 m A [2] $end
$var wire 1 n A [1] $end
$var wire 1 o A [0] $end
$var wire 1 p B [15] $end
$var wire 1 q B [14] $end
$var wire 1 r B [13] $end
$var wire 1 s B [12] $end
$var wire 1 t B [11] $end
$var wire 1 u B [10] $end
$var wire 1 v B [9] $end
$var wire 1 w B [8] $end
$var wire 1 x B [7] $end
$var wire 1 y B [6] $end
$var wire 1 z B [5] $end
$var wire 1 { B [4] $end
$var wire 1 | B [3] $end
$var wire 1 } B [2] $end
$var wire 1 ~ B [1] $end
$var wire 1 !! B [0] $end
$var wire 1 "! Cin $end
$var wire 1 #! Op [2] $end
$var wire 1 $! Op [1] $end
$var wire 1 %! Op [0] $end
$var wire 1 &! invA $end
$var wire 1 '! invB $end
$var wire 1 (! sign $end
$var wire 1 H Out [15] $end
$var wire 1 I Out [14] $end
$var wire 1 J Out [13] $end
$var wire 1 K Out [12] $end
$var wire 1 L Out [11] $end
$var wire 1 M Out [10] $end
$var wire 1 N Out [9] $end
$var wire 1 O Out [8] $end
$var wire 1 P Out [7] $end
$var wire 1 Q Out [6] $end
$var wire 1 R Out [5] $end
$var wire 1 S Out [4] $end
$var wire 1 T Out [3] $end
$var wire 1 U Out [2] $end
$var wire 1 V Out [1] $end
$var wire 1 W Out [0] $end
$var wire 1 X Ofl $end
$var wire 1 Y Z $end
$var wire 1 )! clk $end
$var wire 1 *! rst $end
$var wire 1 +! err $end
$scope module c0 $end
$var reg 1 ,! clk $end
$var reg 1 -! rst $end
$var wire 1 +! err $end
$var integer 32 .! cycle_count $end
$upscope $end
$scope module a0 $end
$var wire 1 ` A [15] $end
$var wire 1 a A [14] $end
$var wire 1 b A [13] $end
$var wire 1 c A [12] $end
$var wire 1 d A [11] $end
$var wire 1 e A [10] $end
$var wire 1 f A [9] $end
$var wire 1 g A [8] $end
$var wire 1 h A [7] $end
$var wire 1 i A [6] $end
$var wire 1 j A [5] $end
$var wire 1 k A [4] $end
$var wire 1 l A [3] $end
$var wire 1 m A [2] $end
$var wire 1 n A [1] $end
$var wire 1 o A [0] $end
$var wire 1 p B [15] $end
$var wire 1 q B [14] $end
$var wire 1 r B [13] $end
$var wire 1 s B [12] $end
$var wire 1 t B [11] $end
$var wire 1 u B [10] $end
$var wire 1 v B [9] $end
$var wire 1 w B [8] $end
$var wire 1 x B [7] $end
$var wire 1 y B [6] $end
$var wire 1 z B [5] $end
$var wire 1 { B [4] $end
$var wire 1 | B [3] $end
$var wire 1 } B [2] $end
$var wire 1 ~ B [1] $end
$var wire 1 !! B [0] $end
$var wire 1 "! Cin $end
$var wire 1 #! Op [2] $end
$var wire 1 $! Op [1] $end
$var wire 1 %! Op [0] $end
$var wire 1 &! invA $end
$var wire 1 '! invB $end
$var wire 1 (! sign $end
$var reg 16 /! Out [15:0] $end
$var reg 1 0! Ofl $end
$var wire 1 Y Z $end
$var wire 1 1! notA [15] $end
$var wire 1 2! notA [14] $end
$var wire 1 3! notA [13] $end
$var wire 1 4! notA [12] $end
$var wire 1 5! notA [11] $end
$var wire 1 6! notA [10] $end
$var wire 1 7! notA [9] $end
$var wire 1 8! notA [8] $end
$var wire 1 9! notA [7] $end
$var wire 1 :! notA [6] $end
$var wire 1 ;! notA [5] $end
$var wire 1 <! notA [4] $end
$var wire 1 =! notA [3] $end
$var wire 1 >! notA [2] $end
$var wire 1 ?! notA [1] $end
$var wire 1 @! notA [0] $end
$var wire 1 A! twosA [15] $end
$var wire 1 B! twosA [14] $end
$var wire 1 C! twosA [13] $end
$var wire 1 D! twosA [12] $end
$var wire 1 E! twosA [11] $end
$var wire 1 F! twosA [10] $end
$var wire 1 G! twosA [9] $end
$var wire 1 H! twosA [8] $end
$var wire 1 I! twosA [7] $end
$var wire 1 J! twosA [6] $end
$var wire 1 K! twosA [5] $end
$var wire 1 L! twosA [4] $end
$var wire 1 M! twosA [3] $end
$var wire 1 N! twosA [2] $end
$var wire 1 O! twosA [1] $end
$var wire 1 P! twosA [0] $end
$var wire 1 Q! notB [15] $end
$var wire 1 R! notB [14] $end
$var wire 1 S! notB [13] $end
$var wire 1 T! notB [12] $end
$var wire 1 U! notB [11] $end
$var wire 1 V! notB [10] $end
$var wire 1 W! notB [9] $end
$var wire 1 X! notB [8] $end
$var wire 1 Y! notB [7] $end
$var wire 1 Z! notB [6] $end
$var wire 1 [! notB [5] $end
$var wire 1 \! notB [4] $end
$var wire 1 ]! notB [3] $end
$var wire 1 ^! notB [2] $end
$var wire 1 _! notB [1] $end
$var wire 1 `! notB [0] $end
$var wire 1 a! twosB [15] $end
$var wire 1 b! twosB [14] $end
$var wire 1 c! twosB [13] $end
$var wire 1 d! twosB [12] $end
$var wire 1 e! twosB [11] $end
$var wire 1 f! twosB [10] $end
$var wire 1 g! twosB [9] $end
$var wire 1 h! twosB [8] $end
$var wire 1 i! twosB [7] $end
$var wire 1 j! twosB [6] $end
$var wire 1 k! twosB [5] $end
$var wire 1 l! twosB [4] $end
$var wire 1 m! twosB [3] $end
$var wire 1 n! twosB [2] $end
$var wire 1 o! twosB [1] $end
$var wire 1 p! twosB [0] $end
$var wire 1 q! shiftOut [15] $end
$var wire 1 r! shiftOut [14] $end
$var wire 1 s! shiftOut [13] $end
$var wire 1 t! shiftOut [12] $end
$var wire 1 u! shiftOut [11] $end
$var wire 1 v! shiftOut [10] $end
$var wire 1 w! shiftOut [9] $end
$var wire 1 x! shiftOut [8] $end
$var wire 1 y! shiftOut [7] $end
$var wire 1 z! shiftOut [6] $end
$var wire 1 {! shiftOut [5] $end
$var wire 1 |! shiftOut [4] $end
$var wire 1 }! shiftOut [3] $end
$var wire 1 ~! shiftOut [2] $end
$var wire 1 !" shiftOut [1] $end
$var wire 1 "" shiftOut [0] $end
$var wire 1 #" opA [15] $end
$var wire 1 $" opA [14] $end
$var wire 1 %" opA [13] $end
$var wire 1 &" opA [12] $end
$var wire 1 '" opA [11] $end
$var wire 1 (" opA [10] $end
$var wire 1 )" opA [9] $end
$var wire 1 *" opA [8] $end
$var wire 1 +" opA [7] $end
$var wire 1 ," opA [6] $end
$var wire 1 -" opA [5] $end
$var wire 1 ." opA [4] $end
$var wire 1 /" opA [3] $end
$var wire 1 0" opA [2] $end
$var wire 1 1" opA [1] $end
$var wire 1 2" opA [0] $end
$var wire 1 3" opB [15] $end
$var wire 1 4" opB [14] $end
$var wire 1 5" opB [13] $end
$var wire 1 6" opB [12] $end
$var wire 1 7" opB [11] $end
$var wire 1 8" opB [10] $end
$var wire 1 9" opB [9] $end
$var wire 1 :" opB [8] $end
$var wire 1 ;" opB [7] $end
$var wire 1 <" opB [6] $end
$var wire 1 =" opB [5] $end
$var wire 1 >" opB [4] $end
$var wire 1 ?" opB [3] $end
$var wire 1 @" opB [2] $end
$var wire 1 A" opB [1] $end
$var wire 1 B" opB [0] $end
$var wire 1 C" cout $end
$var wire 1 D" sumOut [15] $end
$var wire 1 E" sumOut [14] $end
$var wire 1 F" sumOut [13] $end
$var wire 1 G" sumOut [12] $end
$var wire 1 H" sumOut [11] $end
$var wire 1 I" sumOut [10] $end
$var wire 1 J" sumOut [9] $end
$var wire 1 K" sumOut [8] $end
$var wire 1 L" sumOut [7] $end
$var wire 1 M" sumOut [6] $end
$var wire 1 N" sumOut [5] $end
$var wire 1 O" sumOut [4] $end
$var wire 1 P" sumOut [3] $end
$var wire 1 Q" sumOut [2] $end
$var wire 1 R" sumOut [1] $end
$var wire 1 S" sumOut [0] $end
$var wire 1 T" or0 $end
$var wire 1 U" or1 $end
$var wire 1 V" or2 $end
$var wire 1 W" or3 $end
$scope module shift $end
$var wire 1 #" In [15] $end
$var wire 1 $" In [14] $end
$var wire 1 %" In [13] $end
$var wire 1 &" In [12] $end
$var wire 1 '" In [11] $end
$var wire 1 (" In [10] $end
$var wire 1 )" In [9] $end
$var wire 1 *" In [8] $end
$var wire 1 +" In [7] $end
$var wire 1 ," In [6] $end
$var wire 1 -" In [5] $end
$var wire 1 ." In [4] $end
$var wire 1 /" In [3] $end
$var wire 1 0" In [2] $end
$var wire 1 1" In [1] $end
$var wire 1 2" In [0] $end
$var wire 1 ?" Cnt [3] $end
$var wire 1 @" Cnt [2] $end
$var wire 1 A" Cnt [1] $end
$var wire 1 B" Cnt [0] $end
$var wire 1 $! Op [1] $end
$var wire 1 %! Op [0] $end
$var wire 1 q! Out [15] $end
$var wire 1 r! Out [14] $end
$var wire 1 s! Out [13] $end
$var wire 1 t! Out [12] $end
$var wire 1 u! Out [11] $end
$var wire 1 v! Out [10] $end
$var wire 1 w! Out [9] $end
$var wire 1 x! Out [8] $end
$var wire 1 y! Out [7] $end
$var wire 1 z! Out [6] $end
$var wire 1 {! Out [5] $end
$var wire 1 |! Out [4] $end
$var wire 1 }! Out [3] $end
$var wire 1 ~! Out [2] $end
$var wire 1 !" Out [1] $end
$var wire 1 "" Out [0] $end
$var reg 16 X" c [15:0] $end
$var reg 16 Y" d [15:0] $end
$var reg 16 Z" e [15:0] $end
$var reg 16 [" inreg [15:0] $end
$var reg 16 \" outreg [15:0] $end
$var reg 2 ]" opreg [1:0] $end
$var reg 4 ^" cntreg [3:0] $end
$upscope $end
$scope module adder $end
$var wire 1 #" A [15] $end
$var wire 1 $" A [14] $end
$var wire 1 %" A [13] $end
$var wire 1 &" A [12] $end
$var wire 1 '" A [11] $end
$var wire 1 (" A [10] $end
$var wire 1 )" A [9] $end
$var wire 1 *" A [8] $end
$var wire 1 +" A [7] $end
$var wire 1 ," A [6] $end
$var wire 1 -" A [5] $end
$var wire 1 ." A [4] $end
$var wire 1 /" A [3] $end
$var wire 1 0" A [2] $end
$var wire 1 1" A [1] $end
$var wire 1 2" A [0] $end
$var wire 1 3" B [15] $end
$var wire 1 4" B [14] $end
$var wire 1 5" B [13] $end
$var wire 1 6" B [12] $end
$var wire 1 7" B [11] $end
$var wire 1 8" B [10] $end
$var wire 1 9" B [9] $end
$var wire 1 :" B [8] $end
$var wire 1 ;" B [7] $end
$var wire 1 <" B [6] $end
$var wire 1 =" B [5] $end
$var wire 1 >" B [4] $end
$var wire 1 ?" B [3] $end
$var wire 1 @" B [2] $end
$var wire 1 A" B [1] $end
$var wire 1 B" B [0] $end
$var wire 1 "! Cin $end
$var wire 1 C" Cout $end
$var wire 1 D" S [15] $end
$var wire 1 E" S [14] $end
$var wire 1 F" S [13] $end
$var wire 1 G" S [12] $end
$var wire 1 H" S [11] $end
$var wire 1 I" S [10] $end
$var wire 1 J" S [9] $end
$var wire 1 K" S [8] $end
$var wire 1 L" S [7] $end
$var wire 1 M" S [6] $end
$var wire 1 N" S [5] $end
$var wire 1 O" S [4] $end
$var wire 1 P" S [3] $end
$var wire 1 Q" S [2] $end
$var wire 1 R" S [1] $end
$var wire 1 S" S [0] $end
$var wire 1 _" c30 $end
$var wire 1 `" c74 $end
$var wire 1 a" c118 $end
$var wire 1 b" c1512 $end
$var wire 1 c" p30 $end
$var wire 1 d" p74 $end
$var wire 1 e" p118 $end
$var wire 1 f" p1512 $end
$var wire 1 g" g30 $end
$var wire 1 h" g74 $end
$var wire 1 i" g118 $end
$var wire 1 j" g1512 $end
$var wire 1 k" g70 $end
$var wire 1 l" p70 $end
$var wire 1 m" g158 $end
$var wire 1 n" p158 $end
$var wire 1 o" p150 $end
$var wire 1 p" g150 $end
$scope module A3_0 $end
$var wire 1 /" A [3] $end
$var wire 1 0" A [2] $end
$var wire 1 1" A [1] $end
$var wire 1 2" A [0] $end
$var wire 1 ?" B [3] $end
$var wire 1 @" B [2] $end
$var wire 1 A" B [1] $end
$var wire 1 B" B [0] $end
$var wire 1 "! Cin $end
$var wire 1 q" Cout $end
$var wire 1 c" P $end
$var wire 1 g" G $end
$var wire 1 P" S [3] $end
$var wire 1 Q" S [2] $end
$var wire 1 R" S [1] $end
$var wire 1 S" S [0] $end
$var wire 1 r" p0 $end
$var wire 1 s" p1 $end
$var wire 1 t" p2 $end
$var wire 1 u" p3 $end
$var wire 1 v" g0 $end
$var wire 1 w" g1 $end
$var wire 1 x" g2 $end
$var wire 1 y" g3 $end
$var wire 1 z" c1 $end
$var wire 1 {" c2 $end
$var wire 1 |" c3 $end
$scope module bit0 $end
$var wire 1 2" A $end
$var wire 1 B" B $end
$var wire 1 "! Cin $end
$var wire 1 S" S $end
$var wire 1 r" P $end
$var wire 1 v" G $end
$upscope $end
$scope module bit1 $end
$var wire 1 1" A $end
$var wire 1 A" B $end
$var wire 1 z" Cin $end
$var wire 1 R" S $end
$var wire 1 s" P $end
$var wire 1 w" G $end
$upscope $end
$scope module bit2 $end
$var wire 1 0" A $end
$var wire 1 @" B $end
$var wire 1 {" Cin $end
$var wire 1 Q" S $end
$var wire 1 t" P $end
$var wire 1 x" G $end
$upscope $end
$scope module bit3 $end
$var wire 1 /" A $end
$var wire 1 ?" B $end
$var wire 1 |" Cin $end
$var wire 1 P" S $end
$var wire 1 u" P $end
$var wire 1 y" G $end
$upscope $end
$upscope $end
$scope module A7_4 $end
$var wire 1 +" A [3] $end
$var wire 1 ," A [2] $end
$var wire 1 -" A [1] $end
$var wire 1 ." A [0] $end
$var wire 1 ;" B [3] $end
$var wire 1 <" B [2] $end
$var wire 1 =" B [1] $end
$var wire 1 >" B [0] $end
$var wire 1 _" Cin $end
$var wire 1 }" Cout $end
$var wire 1 d" P $end
$var wire 1 h" G $end
$var wire 1 L" S [3] $end
$var wire 1 M" S [2] $end
$var wire 1 N" S [1] $end
$var wire 1 O" S [0] $end
$var wire 1 ~" p0 $end
$var wire 1 !# p1 $end
$var wire 1 "# p2 $end
$var wire 1 ## p3 $end
$var wire 1 $# g0 $end
$var wire 1 %# g1 $end
$var wire 1 &# g2 $end
$var wire 1 '# g3 $end
$var wire 1 (# c1 $end
$var wire 1 )# c2 $end
$var wire 1 *# c3 $end
$scope module bit0 $end
$var wire 1 ." A $end
$var wire 1 >" B $end
$var wire 1 _" Cin $end
$var wire 1 O" S $end
$var wire 1 ~" P $end
$var wire 1 $# G $end
$upscope $end
$scope module bit1 $end
$var wire 1 -" A $end
$var wire 1 =" B $end
$var wire 1 (# Cin $end
$var wire 1 N" S $end
$var wire 1 !# P $end
$var wire 1 %# G $end
$upscope $end
$scope module bit2 $end
$var wire 1 ," A $end
$var wire 1 <" B $end
$var wire 1 )# Cin $end
$var wire 1 M" S $end
$var wire 1 "# P $end
$var wire 1 &# G $end
$upscope $end
$scope module bit3 $end
$var wire 1 +" A $end
$var wire 1 ;" B $end
$var wire 1 *# Cin $end
$var wire 1 L" S $end
$var wire 1 ## P $end
$var wire 1 '# G $end
$upscope $end
$upscope $end
$scope module A11_8 $end
$var wire 1 '" A [3] $end
$var wire 1 (" A [2] $end
$var wire 1 )" A [1] $end
$var wire 1 *" A [0] $end
$var wire 1 7" B [3] $end
$var wire 1 8" B [2] $end
$var wire 1 9" B [1] $end
$var wire 1 :" B [0] $end
$var wire 1 `" Cin $end
$var wire 1 +# Cout $end
$var wire 1 e" P $end
$var wire 1 i" G $end
$var wire 1 H" S [3] $end
$var wire 1 I" S [2] $end
$var wire 1 J" S [1] $end
$var wire 1 K" S [0] $end
$var wire 1 ,# p0 $end
$var wire 1 -# p1 $end
$var wire 1 .# p2 $end
$var wire 1 /# p3 $end
$var wire 1 0# g0 $end
$var wire 1 1# g1 $end
$var wire 1 2# g2 $end
$var wire 1 3# g3 $end
$var wire 1 4# c1 $end
$var wire 1 5# c2 $end
$var wire 1 6# c3 $end
$scope module bit0 $end
$var wire 1 *" A $end
$var wire 1 :" B $end
$var wire 1 `" Cin $end
$var wire 1 K" S $end
$var wire 1 ,# P $end
$var wire 1 0# G $end
$upscope $end
$scope module bit1 $end
$var wire 1 )" A $end
$var wire 1 9" B $end
$var wire 1 4# Cin $end
$var wire 1 J" S $end
$var wire 1 -# P $end
$var wire 1 1# G $end
$upscope $end
$scope module bit2 $end
$var wire 1 (" A $end
$var wire 1 8" B $end
$var wire 1 5# Cin $end
$var wire 1 I" S $end
$var wire 1 .# P $end
$var wire 1 2# G $end
$upscope $end
$scope module bit3 $end
$var wire 1 '" A $end
$var wire 1 7" B $end
$var wire 1 6# Cin $end
$var wire 1 H" S $end
$var wire 1 /# P $end
$var wire 1 3# G $end
$upscope $end
$upscope $end
$scope module A15_12 $end
$var wire 1 #" A [3] $end
$var wire 1 $" A [2] $end
$var wire 1 %" A [1] $end
$var wire 1 &" A [0] $end
$var wire 1 3" B [3] $end
$var wire 1 4" B [2] $end
$var wire 1 5" B [1] $end
$var wire 1 6" B [0] $end
$var wire 1 a" Cin $end
$var wire 1 7# Cout $end
$var wire 1 f" P $end
$var wire 1 j" G $end
$var wire 1 D" S [3] $end
$var wire 1 E" S [2] $end
$var wire 1 F" S [1] $end
$var wire 1 G" S [0] $end
$var wire 1 8# p0 $end
$var wire 1 9# p1 $end
$var wire 1 :# p2 $end
$var wire 1 ;# p3 $end
$var wire 1 <# g0 $end
$var wire 1 =# g1 $end
$var wire 1 ># g2 $end
$var wire 1 ?# g3 $end
$var wire 1 @# c1 $end
$var wire 1 A# c2 $end
$var wire 1 B# c3 $end
$scope module bit0 $end
$var wire 1 &" A $end
$var wire 1 6" B $end
$var wire 1 a" Cin $end
$var wire 1 G" S $end
$var wire 1 8# P $end
$var wire 1 <# G $end
$upscope $end
$scope module bit1 $end
$var wire 1 %" A $end
$var wire 1 5" B $end
$var wire 1 @# Cin $end
$var wire 1 F" S $end
$var wire 1 9# P $end
$var wire 1 =# G $end
$upscope $end
$scope module bit2 $end
$var wire 1 $" A $end
$var wire 1 4" B $end
$var wire 1 A# Cin $end
$var wire 1 E" S $end
$var wire 1 :# P $end
$var wire 1 ># G $end
$upscope $end
$scope module bit3 $end
$var wire 1 #" A $end
$var wire 1 3" B $end
$var wire 1 B# Cin $end
$var wire 1 D" S $end
$var wire 1 ;# P $end
$var wire 1 ?# G $end
$upscope $end
$upscope $end
$upscope $end
$upscope $end
$upscope $end
$upscope $end
$enddefinitions $end
#0
$dumpvars
b11010100100100 !
b101111010000001 "
1C
b11 D
1E
1F
1G
0Z
x[
bx \
x]
x^
bx _
b11 /!
00!
b1100101011 X"
b11001010110110 Y"
b1100101011011011 Z"
b1100101011011011 ["
b11 \"
b11 ]"
b1110 ^"
1,!
1-!
b1 .!
1)!
1*!
0+!
1@!
1?!
0>!
1=!
1<!
0;!
1:!
19!
08!
17!
06!
15!
04!
03!
12!
11!
zP!
zO!
zN!
zM!
zL!
zK!
zJ!
zI!
zH!
zG!
zF!
zE!
zD!
zC!
zB!
zA!
0`!
1_!
1^!
1]!
1\!
1[!
1Z!
0Y!
1X!
0W!
0V!
0U!
0T!
1S!
0R!
1Q!
zp!
zo!
zn!
zm!
zl!
zk!
zj!
zi!
zh!
zg!
zf!
ze!
zd!
zc!
zb!
za!
1""
1!"
0~!
0}!
0|!
0{!
0z!
0y!
0x!
0w!
0v!
0u!
0t!
0s!
0r!
0q!
12"
11"
00"
1/"
1."
0-"
1,"
1+"
0*"
1)"
0("
1'"
0&"
0%"
1$"
1#"
0B"
1A"
1@"
1?"
1>"
1="
1<"
0;"
1:"
09"
08"
07"
06"
15"
04"
13"
1C"
0S"
1R"
0Q"
1P"
1O"
0N"
1M"
0L"
0K"
0J"
1I"
1H"
0G"
1F"
1E"
0D"
1T"
0U"
0V"
0W"
1_"
1`"
0a"
zb"
0c"
0d"
0e"
0f"
1g"
1h"
0i"
1j"
1k"
0l"
1m"
0n"
0o"
1p"
08#
19#
1:#
0;#
0<#
0=#
0>#
1?#
0@#
0A#
0B#
1,#
1-#
0.#
1/#
00#
01#
02#
03#
14#
15#
06#
0~"
1!#
0"#
1##
1$#
0%#
1&#
0'#
1(#
1)#
1*#
1r"
0s"
1t"
0u"
0v"
1w"
0x"
1y"
1z"
1{"
1|"
1(!
1'!
1&!
1%!
1$!
0#!
1"!
1!!
0~
0}
0|
0{
0z
0y
1x
0w
1v
1u
1t
1s
0r
1q
0p
0o
0n
1m
0l
0k
1j
0i
0h
1g
0f
1e
0d
1c
1b
0a
0`
1q"
1}"
0+#
17#
12
11
00
1/
1.
0-
1,
1+
0*
1)
0(
1'
0&
0%
1$
1#
0B
1A
1@
1?
1>
1=
1<
0;
1:
09
08
07
06
15
04
13
1W
1V
0U
0T
0S
0R
0Q
0P
0O
0N
0M
0L
0K
0J
0I
0H
0X
0Y
$end
#50
0,!
0)!
0[
b0 \
0^
0]
b11 \
#100
1,!
b10 .!
1)!
b101001000010010 !
b1110001100000001 "
b110 D
0G
1;
0:
18
17
16
05
03
1n
0m
1k
0j
0g
1f
0e
0b
1a
0x
1w
0u
0t
0s
1r
1p
0%!
1#!
0(!
01
10
0.
1-
1*
0)
1(
1%
0$
b10 ]"
b1111001010110110 Y"
b1111111100101011 X"
b1111111111111111 \"
b110101110100101 /!
1Y!
0X!
1V!
1U!
1T!
0S!
0Q!
0?!
1>!
0<!
1;!
18!
07!
16!
13!
02!
1U"
1V"
1W"
1~!
1}!
1|!
1{!
1z!
1y!
1x!
1w!
1v!
1u!
1t!
1s!
1r!
1q!
0V
1U
1R
1P
1O
1N
1L
1J
1I
01"
0w"
10"
1x"
0."
0$#
1-"
1%#
1*"
10#
0)"
1("
1%"
1=#
0$"
1;"
1'#
0:"
00#
18"
12#
17"
13#
16"
05"
0=#
03"
0?#
1;#
18#
1f"
0/#
0##
0:#
0f"
0-#
0!#
1~"
0t"
1s"
0R"
1Q"
0O"
1N"
1J"
05#
0E"
1L"
0H"
1G"
1D"
0I"
b1010110111101101 ["
b1010110111101101 Z"
b1110101101111011 Y"
b1111111010110111 X"
b1111111111111110 \"
b1011000100010011 /!
0j"
1i"
16#
0""
1V
0U
1S
0R
0P
0N
0L
1K
0I
1H
1H"
1+#
07#
0m"
0p"
1a"
0C"
0G"
1@#
1A#
1E"
0F"
#150
0,!
0)!
b0 \
b1011000100010011 \
#200
1,!
b11 .!
1)!
b1110100111111001 !
b10010011000110 "
b10 D
1B
0A
0@
0<
0;
1:
19
08
14
13
1o
0n
1l
1j
1i
1h
1g
0f
1d
0c
1b
1`
0!!
1~
1}
1y
1x
0w
0v
1u
0q
0p
0#!
02
11
0/
0-
0,
0+
0*
1)
0'
1&
0%
0#
b1111111111111110 /!
1`!
0_!
0^!
0Z!
0Y!
1X!
1W!
0V!
1R!
1Q!
0@!
1?!
0=!
0;!
0:!
09!
08!
17!
05!
14!
03!
01!
0W
1U
1T
1R
1Q
1P
1N
1M
1L
1I
02"
11"
1w"
0/"
0y"
0-"
0%#
0,"
0&#
0+"
0'#
0*"
1)"
0'"
03#
1&"
1<#
0%"
0#"
1B"
0A"
0w"
0@"
0x"
0<"
0;"
1:"
19"
11#
08"
02#
14"
13"
1:#
1f"
1.#
15#
1t"
09#
0f"
08#
1/#
1!#
1u"
1c"
0P"
0N"
0H"
1G"
1F"
0A#
0Q"
b1011000000110 ["
b1001 ^"
b101100000011 Z"
b101100000011 Y"
b101100000011 X"
b1011 \"
0h"
0*#
0g"
1""
0~!
0|!
0{!
0z!
0y!
0x!
0w!
0v!
0u!
0t!
0s!
0r!
0q!
0L"
0}"
0k"
0`"
1K"
04#
0J"
b1011 /!
1W
0U
0S
0R
0Q
0P
0O
0N
0M
0L
0K
0J
0I
0H
0U"
0V"
0W"
#201
0-!
0*!
#250
0,!
0)!
b0 \
b11111 _
b11110 _
b11101 _
b11100 _
b11011 _
b11010 _
b11001 _
b11000 _
b10111 _
b10110 _
b10101 _
b10100 _
b10011 _
b10010 _
b10001 _
b10000 _
b1111 _
b1011000000110 \
b1011 \
#300
1,!
b100 .!
1)!
b1101101110001111 !
b110100111110010 "
0C
b0 D
0F
1G
0B
1A
0?
1<
1;
09
06
15
03
1n
1m
0k
0j
0i
1f
1c
0b
0}
1{
1z
1w
0u
1t
1q
0"!
0$!
0'!
1(!
01
00
1.
1-
1,
0)
0&
1%
1S"
0z"
0{"
0q"
0_"
1O"
0(#
0)#
1Q"
1R"
0M"
1N"
b0 ]"
b10110000001100 Z"
b10110000001100 Y"
b10110000001100 X"
b110000101100 \"
0|"
1^!
0\!
0[!
0X!
1V!
0U!
0R!
0B"
1A"
1w"
0?"
1<"
1;"
09"
01#
06"
0<#
15"
03"
0?!
0>!
1<!
1;!
1:!
07!
04!
13!
0""
0!"
1~!
1{!
1v!
1u!
0;#
19#
18#
1-#
1e"
05#
1##
1"#
1d"
1l"
0u"
0c"
0l"
0s"
1{"
0r"
0S"
0Q"
0R"
1M"
1L"
1I"
1J"
0G"
1A#
0F"
0D"
0E"
b10 ^"
b1011000000110 Z"
b101100000011000 Y"
b101100000011000 X"
b101100000011000 \"
b110000101100 /!
01"
0w"
00"
1."
1$#
1-"
1%#
1,"
1&#
0)"
0&"
1%"
1=#
1B#
0i"
06#
1|"
1U"
1V"
0~!
1|!
0{!
0v!
1t!
1r!
0W
0V
1U
1R
1M
1L
1P"
1H"
0+#
1D"
09#
08#
0-#
0e"
0"#
0d"
0!#
0~"
1(#
1)#
0t"
1s"
0{"
1R"
0O"
0J"
1G"
0@#
b10010001110000 ["
b10010001110000 Z"
b1001000111000000 Y"
b1001000111000000 X"
b1001000111000000 \"
b101100000011000 /!
0a"
1h"
1*#
0|"
1W"
0}!
0|!
1z!
1y!
1x!
0u!
0r!
1q!
0U
1S
0R
0M
1K
1I
0P"
0L"
1}"
1k"
0G"
1`"
0K"
14#
1J"
b1001000111000000 /!
0T
0S
1Q
1P
1O
0L
0I
1H
0T"
#350
0,!
0)!
b0 \
b1001000111000000 \
#400
1,!
b101 .!
1)!
b101100000101101 !
b10011001100101 "
1C
b10 D
0E
0G
1B
0A
1@
0>
0;
0:
19
18
07
04
0n
1j
0h
0g
0f
0`
1!!
0~
1}
0{
0x
0w
1v
1u
0t
0q
1"!
1$!
0&!
0(!
12
10
1/
0.
0,
0(
1'
1&
0%
1$
1S"
b10 ]"
b100100011100 Y"
b100100011100 X"
b100100011100 \"
0`!
1_!
0^!
1\!
1Y!
1X!
0W!
0V!
1U!
1R!
1B"
0A"
1@"
0>"
0$#
0;"
0:"
19"
18"
12#
07"
04"
1?!
0;!
19!
18!
17!
11!
12"
1v"
10"
1x"
1/"
0."
0,"
0&#
0("
02#
1'"
1&"
0%"
0=#
1$"
1~!
1}!
1|!
0z!
0y!
1u!
0t!
0q!
19#
0A#
18#
1"#
1u"
1z"
1{"
1-#
1e"
0,#
0e"
0##
0(#
0s"
0{"
0N"
1L"
1K"
04#
1P"
0M"
1G"
1E"
1F"
b101100000101101 ["
b101 ^"
b10110000010110 Z"
b10110000010110 Y"
b1011000001 X"
b1011000001 \"
b100100011100 /!
0B#
1g"
1|"
0h"
1T"
0W"
1""
0~!
0}!
0|!
1z!
1y!
0x!
1w!
0u!
1U
1T
1S
0Q
0P
1L
0K
0H
0}"
0k"
0P"
1q"
1_"
0D"
1O"
0`"
0K"
b1011000001 /!
1W
0U
0T
0S
1Q
1P
0O
1N
0L
#450
0,!
0)!
b0 \
b11111 _
b11110 _
b11101 _
b11100 _
b11011 _
b11010 _
b11001 _
b11000 _
b10111 _
b10110 _
b10101 _
b10100 _
b10011 _
b10010 _
b10001 _
b10000 _
b1111 _
b101100000101101 \
b1011000001 \
